<?xml version="1.0" encoding="UTF-8"?>
<testng-results skipped="0" failed="0" total="5" passed="5">
  <reporter-output>
  </reporter-output>
  <suite name="com.yahoo.ycsb.db.ElasticsearchClientTest" duration-ms="4337" started-at="2016-04-15T13:44:03Z" finished-at="2016-04-15T13:44:07Z">
    <groups>
    </groups>
    <test name="Command line test" duration-ms="4337" started-at="2016-04-15T13:44:03Z" finished-at="2016-04-15T13:44:07Z">
      <class name="com.yahoo.ycsb.db.ElasticsearchClientTest">
        <test-method status="PASS" signature="setUpClass()" name="setUpClass" is-config="true" duration-ms="3722" started-at="2016-04-15T13:44:03Z" finished-at="2016-04-15T13:44:07Z">
        </test-method>
        <test-method status="PASS" signature="setUp()" name="setUp" is-config="true" duration-ms="178" started-at="2016-04-15T13:44:07Z" finished-at="2016-04-15T13:44:07Z">
        </test-method>
        <test-method status="PASS" signature="testDelete()" name="testDelete" duration-ms="12" started-at="2016-04-15T13:44:07Z" finished-at="2016-04-15T13:44:07Z">
        </test-method>
        <test-method status="PASS" signature="tearDown()" name="tearDown" is-config="true" duration-ms="7" started-at="2016-04-15T13:44:07Z" finished-at="2016-04-15T13:44:07Z">
        </test-method>
        <test-method status="PASS" signature="setUp()" name="setUp" is-config="true" duration-ms="18" started-at="2016-04-15T13:44:07Z" finished-at="2016-04-15T13:44:07Z">
        </test-method>
        <test-method status="PASS" signature="testInsert()" name="testInsert" duration-ms="8" started-at="2016-04-15T13:44:07Z" finished-at="2016-04-15T13:44:07Z">
        </test-method>
        <test-method status="PASS" signature="tearDown()" name="tearDown" is-config="true" duration-ms="7" started-at="2016-04-15T13:44:07Z" finished-at="2016-04-15T13:44:07Z">
        </test-method>
        <test-method status="PASS" signature="setUp()" name="setUp" is-config="true" duration-ms="18" started-at="2016-04-15T13:44:07Z" finished-at="2016-04-15T13:44:07Z">
        </test-method>
        <test-method status="PASS" signature="testRead()" name="testRead" duration-ms="11" started-at="2016-04-15T13:44:07Z" finished-at="2016-04-15T13:44:07Z">
        </test-method>
        <test-method status="PASS" signature="tearDown()" name="tearDown" is-config="true" duration-ms="6" started-at="2016-04-15T13:44:07Z" finished-at="2016-04-15T13:44:07Z">
        </test-method>
        <test-method status="PASS" signature="setUp()" name="setUp" is-config="true" duration-ms="15" started-at="2016-04-15T13:44:07Z" finished-at="2016-04-15T13:44:07Z">
        </test-method>
        <test-method status="PASS" signature="testScan()" name="testScan" duration-ms="82" started-at="2016-04-15T13:44:07Z" finished-at="2016-04-15T13:44:07Z">
        </test-method>
        <test-method status="PASS" signature="tearDown()" name="tearDown" is-config="true" duration-ms="5" started-at="2016-04-15T13:44:07Z" finished-at="2016-04-15T13:44:07Z">
        </test-method>
        <test-method status="PASS" signature="setUp()" name="setUp" is-config="true" duration-ms="15" started-at="2016-04-15T13:44:07Z" finished-at="2016-04-15T13:44:07Z">
        </test-method>
        <test-method status="PASS" signature="testUpdate()" name="testUpdate" duration-ms="11" started-at="2016-04-15T13:44:07Z" finished-at="2016-04-15T13:44:07Z">
        </test-method>
        <test-method status="PASS" signature="tearDown()" name="tearDown" is-config="true" duration-ms="7" started-at="2016-04-15T13:44:07Z" finished-at="2016-04-15T13:44:07Z">
        </test-method>
        <test-method status="PASS" signature="tearDownClass()" name="tearDownClass" is-config="true" duration-ms="191" started-at="2016-04-15T13:44:07Z" finished-at="2016-04-15T13:44:07Z">
        </test-method>
      </class>
    </test>
  </suite>
</testng-results>
