-------------------------------------------------------------------------------
Test set: com.yahoo.ycsb.db.AsyncMongoDbClientTest
-------------------------------------------------------------------------------
Tests run: 1, Failures: 0, Errors: 0, Skipped: 1, Time elapsed: 0 sec
