/home/nitishbhat/leveldb/mapkeeper/ycsb/YCSB/mongodb/src/test/java/com/yahoo/ycsb/db/OptionsSupportTest.java
/home/nitishbhat/leveldb/mapkeeper/ycsb/YCSB/mongodb/src/test/java/com/yahoo/ycsb/db/AbstractDBTestCases.java
/home/nitishbhat/leveldb/mapkeeper/ycsb/YCSB/mongodb/src/test/java/com/yahoo/ycsb/db/AsyncMongoDbClientTest.java
/home/nitishbhat/leveldb/mapkeeper/ycsb/YCSB/mongodb/src/test/java/com/yahoo/ycsb/db/MongoDbClientTest.java
